id,content,difficulty
0,this is an easy text,Easy
1,Another example of medium text,Medium
2,This is a Hard text with numbers 123 and symbols #$%,Hard
3,easy sentences only lowercase,Easy
4,This text is Slightly Harder to Type,Medium
5,Symbols & UpperCase Characters in Hard text!,Hard
6,another simple text for practice,Easy
7,Medium texts have Both Upper and Lower case,Medium
8,Complex text! Including @special characters & numbers 987,Hard
9,Hello! You can call me Pedro. I'm 23 years old and I study Programming. I hope that one day I become a great developer that creates very using stuff to people. Thanks!,Hard
